[
  {
    "id":"ID0001",
    "category" : "gold",
    "K":5,
    "weight":"55",
    "name":"Lorem Ipsum",
    "price":99.5,
    "main_image":"Image0001",
    "images_array":["Image0001_0","Image0001_1"],
    "discount":50,
    "cost":30,
    "Description":"Dolor sit amer asdff ass sd fdfsasd fjaej als"
  }
,
  {
    "id":"ID0002",
    "category" : "gold",
    "K":5,
    "weight":"55",
    "name":"Lorem Ipsum",
    "price":99.5,
    "main_image":"Image0001",
    "images_array":["Image0001_0","Image0001_1"],
    "discount":50,
    "cost":30,
    "Description":"Dolor sit amer asdff ass sd fdfsasd fjaej als"
  },
  {
    "id":"ID0003",
    "category" : "gold",
    "K":5,
    "weight":"55",
    "name":"Lorem Ipsum",
    "price":99.5,
    "main_image":"Image0001",
    "images_array":["Image0001_0","Image0001_1"],
    "discount":50,
    "cost":30,
    "Description":"Dolor sit amer asdff ass sd fdfsasd fjaej als"
  }

]
